Grammar

    0 $accept: input $end

    1 input: function

    2 function: VALUE
    3         | STRING
    4         | DOLLAR IDENTIFIER
    5         | AT IDENTIFIER
    6         | IDENTIFIER
    7         | IDENTIFIER LPAREN param_list RPAREN
    8         | function COLON function
    9         | LACCOL function RACCOL

   10 param_list: function
   11           | function COMMA param_list


Terminals, with rules where they appear

$end (0) 0
error (256)
IDENTIFIER (258) 4 5 6 7
VALUE (259) 2
STRING (260) 3
COLON (261) 8
COMMA (262) 11
LPAREN (263) 7
RPAREN (264) 7
LACCOL (265) 9
RACCOL (266) 9
DOLLAR (267) 4
AT (268) 5


Nonterminals, with rules where they appear

$accept (14)
    on left: 0
input (15)
    on left: 1, on right: 0
function (16)
    on left: 2 3 4 5 6 7 8 9, on right: 1 8 9 10 11
param_list (17)
    on left: 10 11, on right: 7 11


State 0

    0 $accept: . input $end

    IDENTIFIER  shift, and go to state 1
    VALUE       shift, and go to state 2
    STRING      shift, and go to state 3
    LACCOL      shift, and go to state 4
    DOLLAR      shift, and go to state 5
    AT          shift, and go to state 6

    input     go to state 7
    function  go to state 8


State 1

    6 function: IDENTIFIER .
    7         | IDENTIFIER . LPAREN param_list RPAREN

    LPAREN  shift, and go to state 9

    $default  reduce using rule 6 (function)


State 2

    2 function: VALUE .

    $default  reduce using rule 2 (function)


State 3

    3 function: STRING .

    $default  reduce using rule 3 (function)


State 4

    9 function: LACCOL . function RACCOL

    IDENTIFIER  shift, and go to state 1
    VALUE       shift, and go to state 2
    STRING      shift, and go to state 3
    LACCOL      shift, and go to state 4
    DOLLAR      shift, and go to state 5
    AT          shift, and go to state 6

    function  go to state 10


State 5

    4 function: DOLLAR . IDENTIFIER

    IDENTIFIER  shift, and go to state 11


State 6

    5 function: AT . IDENTIFIER

    IDENTIFIER  shift, and go to state 12


State 7

    0 $accept: input . $end

    $end  shift, and go to state 13


State 8

    1 input: function .
    8 function: function . COLON function

    COLON  shift, and go to state 14

    $default  reduce using rule 1 (input)


State 9

    7 function: IDENTIFIER LPAREN . param_list RPAREN

    IDENTIFIER  shift, and go to state 1
    VALUE       shift, and go to state 2
    STRING      shift, and go to state 3
    LACCOL      shift, and go to state 4
    DOLLAR      shift, and go to state 5
    AT          shift, and go to state 6

    function    go to state 15
    param_list  go to state 16


State 10

    8 function: function . COLON function
    9         | LACCOL function . RACCOL

    COLON   shift, and go to state 14
    RACCOL  shift, and go to state 17


State 11

    4 function: DOLLAR IDENTIFIER .

    $default  reduce using rule 4 (function)


State 12

    5 function: AT IDENTIFIER .

    $default  reduce using rule 5 (function)


State 13

    0 $accept: input $end .

    $default  accept


State 14

    8 function: function COLON . function

    IDENTIFIER  shift, and go to state 1
    VALUE       shift, and go to state 2
    STRING      shift, and go to state 3
    LACCOL      shift, and go to state 4
    DOLLAR      shift, and go to state 5
    AT          shift, and go to state 6

    function  go to state 18


State 15

    8 function: function . COLON function
   10 param_list: function .
   11           | function . COMMA param_list

    COLON  shift, and go to state 14
    COMMA  shift, and go to state 19

    $default  reduce using rule 10 (param_list)


State 16

    7 function: IDENTIFIER LPAREN param_list . RPAREN

    RPAREN  shift, and go to state 20


State 17

    9 function: LACCOL function RACCOL .

    $default  reduce using rule 9 (function)


State 18

    8 function: function . COLON function
    8         | function COLON function .

    $default  reduce using rule 8 (function)


State 19

   11 param_list: function COMMA . param_list

    IDENTIFIER  shift, and go to state 1
    VALUE       shift, and go to state 2
    STRING      shift, and go to state 3
    LACCOL      shift, and go to state 4
    DOLLAR      shift, and go to state 5
    AT          shift, and go to state 6

    function    go to state 15
    param_list  go to state 21


State 20

    7 function: IDENTIFIER LPAREN param_list RPAREN .

    $default  reduce using rule 7 (function)


State 21

   11 param_list: function COMMA param_list .

    $default  reduce using rule 11 (param_list)
